^C:\USERS\Z610067X\DOCUMENTS\ZDING\ANIT11\SOFTWARE\QPCR ALPHA\PCRPROJALPHA2\STDAFX.CPP
/c /Zi /nologo /W3 /WX- /diagnostics:classic /O2 /Oi /Oy- /GL /D WIN32 /D _WINDOWS /D NDEBUG /D _MBCS /Gm- /EHsc /MT /GS /Gy /fp:precise /Zc:wchar_t /Zc:forScope /Zc:inline /Yc"stdafx.h" /Fp"RELEASE\PCRPROJECT.PCH" /Fo"RELEASE\\" /Fd"RELEASE\VC141.PDB" /Gd /TP /analyze- C:\USERS\Z610067X\DOCUMENTS\ZDING\ANIT11\SOFTWARE\QPCR ALPHA\PCRPROJALPHA2\STDAFX.CPP
^C:\USERS\Z610067X\DOCUMENTS\ZDING\ANIT11\SOFTWARE\QPCR ALPHA\PCRPROJALPHA2\CHART\CHARTCTRL\CHARTAXIS.CPP
/c /Zi /nologo /W3 /WX- /diagnostics:classic /O2 /Oi /Oy- /GL /D WIN32 /D _WINDOWS /D NDEBUG /D _MBCS /Gm- /EHsc /MT /GS /Gy /fp:precise /Zc:wchar_t /Zc:forScope /Zc:inline /Yu"stdafx.h" /Fp"RELEASE\PCRPROJECT.PCH" /Fo"RELEASE\\" /Fd"RELEASE\VC141.PDB" /Gd /TP /analyze- C:\USERS\Z610067X\DOCUMENTS\ZDING\ANIT11\SOFTWARE\QPCR ALPHA\PCRPROJALPHA2\CHART\CHARTCTRL\CHARTAXIS.CPP
^C:\USERS\Z610067X\DOCUMENTS\ZDING\ANIT11\SOFTWARE\QPCR ALPHA\PCRPROJALPHA2\CHART\CHARTCTRL\CHARTAXISLABEL.CPP
/c /Zi /nologo /W3 /WX- /diagnostics:classic /O2 /Oi /Oy- /GL /D WIN32 /D _WINDOWS /D NDEBUG /D _MBCS /Gm- /EHsc /MT /GS /Gy /fp:precise /Zc:wchar_t /Zc:forScope /Zc:inline /Yu"stdafx.h" /Fp"RELEASE\PCRPROJECT.PCH" /Fo"RELEASE\\" /Fd"RELEASE\VC141.PDB" /Gd /TP /analyze- C:\USERS\Z610067X\DOCUMENTS\ZDING\ANIT11\SOFTWARE\QPCR ALPHA\PCRPROJALPHA2\CHART\CHARTCTRL\CHARTAXISLABEL.CPP
^C:\USERS\Z610067X\DOCUMENTS\ZDING\ANIT11\SOFTWARE\QPCR ALPHA\PCRPROJALPHA2\CHART\CHARTCTRL\CHARTBARSERIE.CPP
/c /Zi /nologo /W3 /WX- /diagnostics:classic /O2 /Oi /Oy- /GL /D WIN32 /D _WINDOWS /D NDEBUG /D _MBCS /Gm- /EHsc /MT /GS /Gy /fp:precise /Zc:wchar_t /Zc:forScope /Zc:inline /Yu"stdafx.h" /Fp"RELEASE\PCRPROJECT.PCH" /Fo"RELEASE\\" /Fd"RELEASE\VC141.PDB" /Gd /TP /analyze- C:\USERS\Z610067X\DOCUMENTS\ZDING\ANIT11\SOFTWARE\QPCR ALPHA\PCRPROJALPHA2\CHART\CHARTCTRL\CHARTBARSERIE.CPP
^C:\USERS\Z610067X\DOCUMENTS\ZDING\ANIT11\SOFTWARE\QPCR ALPHA\PCRPROJALPHA2\CHART\CHARTCTRL\CHARTCANDLESTICKSERIE.CPP
/c /Zi /nologo /W3 /WX- /diagnostics:classic /O2 /Oi /Oy- /GL /D WIN32 /D _WINDOWS /D NDEBUG /D _MBCS /Gm- /EHsc /MT /GS /Gy /fp:precise /Zc:wchar_t /Zc:forScope /Zc:inline /Yu"stdafx.h" /Fp"RELEASE\PCRPROJECT.PCH" /Fo"RELEASE\\" /Fd"RELEASE\VC141.PDB" /Gd /TP /analyze- C:\USERS\Z610067X\DOCUMENTS\ZDING\ANIT11\SOFTWARE\QPCR ALPHA\PCRPROJALPHA2\CHART\CHARTCTRL\CHARTCANDLESTICKSERIE.CPP
^C:\USERS\Z610067X\DOCUMENTS\ZDING\ANIT11\SOFTWARE\QPCR ALPHA\PCRPROJALPHA2\CHART\CHARTCTRL\CHARTCROSSHAIRCURSOR.CPP
/c /Zi /nologo /W3 /WX- /diagnostics:classic /O2 /Oi /Oy- /GL /D WIN32 /D _WINDOWS /D NDEBUG /D _MBCS /Gm- /EHsc /MT /GS /Gy /fp:precise /Zc:wchar_t /Zc:forScope /Zc:inline /Yu"stdafx.h" /Fp"RELEASE\PCRPROJECT.PCH" /Fo"RELEASE\\" /Fd"RELEASE\VC141.PDB" /Gd /TP /analyze- C:\USERS\Z610067X\DOCUMENTS\ZDING\ANIT11\SOFTWARE\QPCR ALPHA\PCRPROJALPHA2\CHART\CHARTCTRL\CHARTCROSSHAIRCURSOR.CPP
^C:\USERS\Z610067X\DOCUMENTS\ZDING\ANIT11\SOFTWARE\QPCR ALPHA\PCRPROJALPHA2\CHART\CHARTCTRL\CHARTCTRL.CPP
/c /Zi /nologo /W3 /WX- /diagnostics:classic /O2 /Oi /Oy- /GL /D WIN32 /D _WINDOWS /D NDEBUG /D _MBCS /Gm- /EHsc /MT /GS /Gy /fp:precise /Zc:wchar_t /Zc:forScope /Zc:inline /Yu"stdafx.h" /Fp"RELEASE\PCRPROJECT.PCH" /Fo"RELEASE\\" /Fd"RELEASE\VC141.PDB" /Gd /TP /analyze- C:\USERS\Z610067X\DOCUMENTS\ZDING\ANIT11\SOFTWARE\QPCR ALPHA\PCRPROJALPHA2\CHART\CHARTCTRL\CHARTCTRL.CPP
^C:\USERS\Z610067X\DOCUMENTS\ZDING\ANIT11\SOFTWARE\QPCR ALPHA\PCRPROJALPHA2\CHART\CHARTCTRL\CHARTCURSOR.CPP
/c /Zi /nologo /W3 /WX- /diagnostics:classic /O2 /Oi /Oy- /GL /D WIN32 /D _WINDOWS /D NDEBUG /D _MBCS /Gm- /EHsc /MT /GS /Gy /fp:precise /Zc:wchar_t /Zc:forScope /Zc:inline /Yu"stdafx.h" /Fp"RELEASE\PCRPROJECT.PCH" /Fo"RELEASE\\" /Fd"RELEASE\VC141.PDB" /Gd /TP /analyze- C:\USERS\Z610067X\DOCUMENTS\ZDING\ANIT11\SOFTWARE\QPCR ALPHA\PCRPROJALPHA2\CHART\CHARTCTRL\CHARTCURSOR.CPP
^C:\USERS\Z610067X\DOCUMENTS\ZDING\ANIT11\SOFTWARE\QPCR ALPHA\PCRPROJALPHA2\CHART\CHARTCTRL\CHARTDATETIMEAXIS.CPP
/c /Zi /nologo /W3 /WX- /diagnostics:classic /O2 /Oi /Oy- /GL /D WIN32 /D _WINDOWS /D NDEBUG /D _MBCS /Gm- /EHsc /MT /GS /Gy /fp:precise /Zc:wchar_t /Zc:forScope /Zc:inline /Yu"stdafx.h" /Fp"RELEASE\PCRPROJECT.PCH" /Fo"RELEASE\\" /Fd"RELEASE\VC141.PDB" /Gd /TP /analyze- C:\USERS\Z610067X\DOCUMENTS\ZDING\ANIT11\SOFTWARE\QPCR ALPHA\PCRPROJALPHA2\CHART\CHARTCTRL\CHARTDATETIMEAXIS.CPP
^C:\USERS\Z610067X\DOCUMENTS\ZDING\ANIT11\SOFTWARE\QPCR ALPHA\PCRPROJALPHA2\CHART\CHARTCTRL\CHARTDRAGLINECURSOR.CPP
/c /Zi /nologo /W3 /WX- /diagnostics:classic /O2 /Oi /Oy- /GL /D WIN32 /D _WINDOWS /D NDEBUG /D _MBCS /Gm- /EHsc /MT /GS /Gy /fp:precise /Zc:wchar_t /Zc:forScope /Zc:inline /Yu"stdafx.h" /Fp"RELEASE\PCRPROJECT.PCH" /Fo"RELEASE\\" /Fd"RELEASE\VC141.PDB" /Gd /TP /analyze- C:\USERS\Z610067X\DOCUMENTS\ZDING\ANIT11\SOFTWARE\QPCR ALPHA\PCRPROJALPHA2\CHART\CHARTCTRL\CHARTDRAGLINECURSOR.CPP
^C:\USERS\Z610067X\DOCUMENTS\ZDING\ANIT11\SOFTWARE\QPCR ALPHA\PCRPROJALPHA2\CHART\CHARTCTRL\CHARTFONT.CPP
/c /Zi /nologo /W3 /WX- /diagnostics:classic /O2 /Oi /Oy- /GL /D WIN32 /D _WINDOWS /D NDEBUG /D _MBCS /Gm- /EHsc /MT /GS /Gy /fp:precise /Zc:wchar_t /Zc:forScope /Zc:inline /Yu"stdafx.h" /Fp"RELEASE\PCRPROJECT.PCH" /Fo"RELEASE\\" /Fd"RELEASE\VC141.PDB" /Gd /TP /analyze- C:\USERS\Z610067X\DOCUMENTS\ZDING\ANIT11\SOFTWARE\QPCR ALPHA\PCRPROJALPHA2\CHART\CHARTCTRL\CHARTFONT.CPP
^C:\USERS\Z610067X\DOCUMENTS\ZDING\ANIT11\SOFTWARE\QPCR ALPHA\PCRPROJALPHA2\CHART\CHARTCTRL\CHARTGANTTSERIE.CPP
/c /Zi /nologo /W3 /WX- /diagnostics:classic /O2 /Oi /Oy- /GL /D WIN32 /D _WINDOWS /D NDEBUG /D _MBCS /Gm- /EHsc /MT /GS /Gy /fp:precise /Zc:wchar_t /Zc:forScope /Zc:inline /Yu"stdafx.h" /Fp"RELEASE\PCRPROJECT.PCH" /Fo"RELEASE\\" /Fd"RELEASE\VC141.PDB" /Gd /TP /analyze- C:\USERS\Z610067X\DOCUMENTS\ZDING\ANIT11\SOFTWARE\QPCR ALPHA\PCRPROJALPHA2\CHART\CHARTCTRL\CHARTGANTTSERIE.CPP
^C:\USERS\Z610067X\DOCUMENTS\ZDING\ANIT11\SOFTWARE\QPCR ALPHA\PCRPROJALPHA2\CHART\CHARTCTRL\CHARTGRADIENT.CPP
/c /Zi /nologo /W3 /WX- /diagnostics:classic /O2 /Oi /Oy- /GL /D WIN32 /D _WINDOWS /D NDEBUG /D _MBCS /Gm- /EHsc /MT /GS /Gy /fp:precise /Zc:wchar_t /Zc:forScope /Zc:inline /Yu"stdafx.h" /Fp"RELEASE\PCRPROJECT.PCH" /Fo"RELEASE\\" /Fd"RELEASE\VC141.PDB" /Gd /TP /analyze- C:\USERS\Z610067X\DOCUMENTS\ZDING\ANIT11\SOFTWARE\QPCR ALPHA\PCRPROJALPHA2\CHART\CHARTCTRL\CHARTGRADIENT.CPP
^C:\USERS\Z610067X\DOCUMENTS\ZDING\ANIT11\SOFTWARE\QPCR ALPHA\PCRPROJALPHA2\CHART\CHARTCTRL\CHARTGRID.CPP
/c /Zi /nologo /W3 /WX- /diagnostics:classic /O2 /Oi /Oy- /GL /D WIN32 /D _WINDOWS /D NDEBUG /D _MBCS /Gm- /EHsc /MT /GS /Gy /fp:precise /Zc:wchar_t /Zc:forScope /Zc:inline /Yu"stdafx.h" /Fp"RELEASE\PCRPROJECT.PCH" /Fo"RELEASE\\" /Fd"RELEASE\VC141.PDB" /Gd /TP /analyze- C:\USERS\Z610067X\DOCUMENTS\ZDING\ANIT11\SOFTWARE\QPCR ALPHA\PCRPROJALPHA2\CHART\CHARTCTRL\CHARTGRID.CPP
^C:\USERS\Z610067X\DOCUMENTS\ZDING\ANIT11\SOFTWARE\QPCR ALPHA\PCRPROJALPHA2\CHART\CHARTCTRL\CHARTLEGEND.CPP
/c /Zi /nologo /W3 /WX- /diagnostics:classic /O2 /Oi /Oy- /GL /D WIN32 /D _WINDOWS /D NDEBUG /D _MBCS /Gm- /EHsc /MT /GS /Gy /fp:precise /Zc:wchar_t /Zc:forScope /Zc:inline /Yu"stdafx.h" /Fp"RELEASE\PCRPROJECT.PCH" /Fo"RELEASE\\" /Fd"RELEASE\VC141.PDB" /Gd /TP /analyze- C:\USERS\Z610067X\DOCUMENTS\ZDING\ANIT11\SOFTWARE\QPCR ALPHA\PCRPROJALPHA2\CHART\CHARTCTRL\CHARTLEGEND.CPP
^C:\USERS\Z610067X\DOCUMENTS\ZDING\ANIT11\SOFTWARE\QPCR ALPHA\PCRPROJALPHA2\CHART\CHARTCTRL\CHARTLINESERIE.CPP
/c /Zi /nologo /W3 /WX- /diagnostics:classic /O2 /Oi /Oy- /GL /D WIN32 /D _WINDOWS /D NDEBUG /D _MBCS /Gm- /EHsc /MT /GS /Gy /fp:precise /Zc:wchar_t /Zc:forScope /Zc:inline /Yu"stdafx.h" /Fp"RELEASE\PCRPROJECT.PCH" /Fo"RELEASE\\" /Fd"RELEASE\VC141.PDB" /Gd /TP /analyze- C:\USERS\Z610067X\DOCUMENTS\ZDING\ANIT11\SOFTWARE\QPCR ALPHA\PCRPROJALPHA2\CHART\CHARTCTRL\CHARTLINESERIE.CPP
^C:\USERS\Z610067X\DOCUMENTS\ZDING\ANIT11\SOFTWARE\QPCR ALPHA\PCRPROJALPHA2\CHART\CHARTCTRL\CHARTLOGARITHMICAXIS.CPP
/c /Zi /nologo /W3 /WX- /diagnostics:classic /O2 /Oi /Oy- /GL /D WIN32 /D _WINDOWS /D NDEBUG /D _MBCS /Gm- /EHsc /MT /GS /Gy /fp:precise /Zc:wchar_t /Zc:forScope /Zc:inline /Yu"stdafx.h" /Fp"RELEASE\PCRPROJECT.PCH" /Fo"RELEASE\\" /Fd"RELEASE\VC141.PDB" /Gd /TP /analyze- C:\USERS\Z610067X\DOCUMENTS\ZDING\ANIT11\SOFTWARE\QPCR ALPHA\PCRPROJALPHA2\CHART\CHARTCTRL\CHARTLOGARITHMICAXIS.CPP
^C:\USERS\Z610067X\DOCUMENTS\ZDING\ANIT11\SOFTWARE\QPCR ALPHA\PCRPROJALPHA2\CHART\CHARTCTRL\CHARTPOINTSSERIE.CPP
/c /Zi /nologo /W3 /WX- /diagnostics:classic /O2 /Oi /Oy- /GL /D WIN32 /D _WINDOWS /D NDEBUG /D _MBCS /Gm- /EHsc /MT /GS /Gy /fp:precise /Zc:wchar_t /Zc:forScope /Zc:inline /Yu"stdafx.h" /Fp"RELEASE\PCRPROJECT.PCH" /Fo"RELEASE\\" /Fd"RELEASE\VC141.PDB" /Gd /TP /analyze- C:\USERS\Z610067X\DOCUMENTS\ZDING\ANIT11\SOFTWARE\QPCR ALPHA\PCRPROJALPHA2\CHART\CHARTCTRL\CHARTPOINTSSERIE.CPP
^C:\USERS\Z610067X\DOCUMENTS\ZDING\ANIT11\SOFTWARE\QPCR ALPHA\PCRPROJALPHA2\CHART\CHARTCTRL\CHARTSCROLLBAR.CPP
/c /Zi /nologo /W3 /WX- /diagnostics:classic /O2 /Oi /Oy- /GL /D WIN32 /D _WINDOWS /D NDEBUG /D _MBCS /Gm- /EHsc /MT /GS /Gy /fp:precise /Zc:wchar_t /Zc:forScope /Zc:inline /Yu"stdafx.h" /Fp"RELEASE\PCRPROJECT.PCH" /Fo"RELEASE\\" /Fd"RELEASE\VC141.PDB" /Gd /TP /analyze- C:\USERS\Z610067X\DOCUMENTS\ZDING\ANIT11\SOFTWARE\QPCR ALPHA\PCRPROJALPHA2\CHART\CHARTCTRL\CHARTSCROLLBAR.CPP
^C:\USERS\Z610067X\DOCUMENTS\ZDING\ANIT11\SOFTWARE\QPCR ALPHA\PCRPROJALPHA2\CHART\CHARTCTRL\CHARTSERIE.CPP
/c /Zi /nologo /W3 /WX- /diagnostics:classic /O2 /Oi /Oy- /GL /D WIN32 /D _WINDOWS /D NDEBUG /D _MBCS /Gm- /EHsc /MT /GS /Gy /fp:precise /Zc:wchar_t /Zc:forScope /Zc:inline /Yu"stdafx.h" /Fp"RELEASE\PCRPROJECT.PCH" /Fo"RELEASE\\" /Fd"RELEASE\VC141.PDB" /Gd /TP /analyze- C:\USERS\Z610067X\DOCUMENTS\ZDING\ANIT11\SOFTWARE\QPCR ALPHA\PCRPROJALPHA2\CHART\CHARTCTRL\CHARTSERIE.CPP
^C:\USERS\Z610067X\DOCUMENTS\ZDING\ANIT11\SOFTWARE\QPCR ALPHA\PCRPROJALPHA2\CHART\CHARTCTRL\CHARTSTANDARDAXIS.CPP
/c /Zi /nologo /W3 /WX- /diagnostics:classic /O2 /Oi /Oy- /GL /D WIN32 /D _WINDOWS /D NDEBUG /D _MBCS /Gm- /EHsc /MT /GS /Gy /fp:precise /Zc:wchar_t /Zc:forScope /Zc:inline /Yu"stdafx.h" /Fp"RELEASE\PCRPROJECT.PCH" /Fo"RELEASE\\" /Fd"RELEASE\VC141.PDB" /Gd /TP /analyze- C:\USERS\Z610067X\DOCUMENTS\ZDING\ANIT11\SOFTWARE\QPCR ALPHA\PCRPROJALPHA2\CHART\CHARTCTRL\CHARTSTANDARDAXIS.CPP
^C:\USERS\Z610067X\DOCUMENTS\ZDING\ANIT11\SOFTWARE\QPCR ALPHA\PCRPROJALPHA2\CHART\CHARTCTRL\CHARTSURFACESERIE.CPP
/c /Zi /nologo /W3 /WX- /diagnostics:classic /O2 /Oi /Oy- /GL /D WIN32 /D _WINDOWS /D NDEBUG /D _MBCS /Gm- /EHsc /MT /GS /Gy /fp:precise /Zc:wchar_t /Zc:forScope /Zc:inline /Yu"stdafx.h" /Fp"RELEASE\PCRPROJECT.PCH" /Fo"RELEASE\\" /Fd"RELEASE\VC141.PDB" /Gd /TP /analyze- C:\USERS\Z610067X\DOCUMENTS\ZDING\ANIT11\SOFTWARE\QPCR ALPHA\PCRPROJALPHA2\CHART\CHARTCTRL\CHARTSURFACESERIE.CPP
^C:\USERS\Z610067X\DOCUMENTS\ZDING\ANIT11\SOFTWARE\QPCR ALPHA\PCRPROJALPHA2\CHART\CHARTCTRL\CHARTTITLE.CPP
/c /Zi /nologo /W3 /WX- /diagnostics:classic /O2 /Oi /Oy- /GL /D WIN32 /D _WINDOWS /D NDEBUG /D _MBCS /Gm- /EHsc /MT /GS /Gy /fp:precise /Zc:wchar_t /Zc:forScope /Zc:inline /Yu"stdafx.h" /Fp"RELEASE\PCRPROJECT.PCH" /Fo"RELEASE\\" /Fd"RELEASE\VC141.PDB" /Gd /TP /analyze- C:\USERS\Z610067X\DOCUMENTS\ZDING\ANIT11\SOFTWARE\QPCR ALPHA\PCRPROJALPHA2\CHART\CHARTCTRL\CHARTTITLE.CPP
^C:\USERS\Z610067X\DOCUMENTS\ZDING\ANIT11\SOFTWARE\QPCR ALPHA\PCRPROJALPHA2\CHART\CHARTCTRL\CHARTXYSERIE.CPP
/c /Zi /nologo /W3 /WX- /diagnostics:classic /O2 /Oi /Oy- /GL /D WIN32 /D _WINDOWS /D NDEBUG /D _MBCS /Gm- /EHsc /MT /GS /Gy /fp:precise /Zc:wchar_t /Zc:forScope /Zc:inline /Yu"stdafx.h" /Fp"RELEASE\PCRPROJECT.PCH" /Fo"RELEASE\\" /Fd"RELEASE\VC141.PDB" /Gd /TP /analyze- C:\USERS\Z610067X\DOCUMENTS\ZDING\ANIT11\SOFTWARE\QPCR ALPHA\PCRPROJALPHA2\CHART\CHARTCTRL\CHARTXYSERIE.CPP
^C:\USERS\Z610067X\DOCUMENTS\ZDING\ANIT11\SOFTWARE\QPCR ALPHA\PCRPROJALPHA2\CURVESHOW.CPP
/c /Zi /nologo /W3 /WX- /diagnostics:classic /O2 /Oi /Oy- /GL /D WIN32 /D _WINDOWS /D NDEBUG /D _MBCS /Gm- /EHsc /MT /GS /Gy /fp:precise /Zc:wchar_t /Zc:forScope /Zc:inline /Yu"stdafx.h" /Fp"RELEASE\PCRPROJECT.PCH" /Fo"RELEASE\\" /Fd"RELEASE\VC141.PDB" /Gd /TP /analyze- C:\USERS\Z610067X\DOCUMENTS\ZDING\ANIT11\SOFTWARE\QPCR ALPHA\PCRPROJALPHA2\CURVESHOW.CPP
^C:\USERS\Z610067X\DOCUMENTS\ZDING\ANIT11\SOFTWARE\QPCR ALPHA\PCRPROJALPHA2\INTTIMEDLG.CPP
/c /Zi /nologo /W3 /WX- /diagnostics:classic /O2 /Oi /Oy- /GL /D WIN32 /D _WINDOWS /D NDEBUG /D _MBCS /Gm- /EHsc /MT /GS /Gy /fp:precise /Zc:wchar_t /Zc:forScope /Zc:inline /Yu"stdafx.h" /Fp"RELEASE\PCRPROJECT.PCH" /Fo"RELEASE\\" /Fd"RELEASE\VC141.PDB" /Gd /TP /analyze- C:\USERS\Z610067X\DOCUMENTS\ZDING\ANIT11\SOFTWARE\QPCR ALPHA\PCRPROJALPHA2\INTTIMEDLG.CPP
^C:\USERS\Z610067X\DOCUMENTS\ZDING\ANIT11\SOFTWARE\QPCR ALPHA\PCRPROJALPHA2\MANUDLG.CPP
/c /Zi /nologo /W3 /WX- /diagnostics:classic /O2 /Oi /Oy- /GL /D WIN32 /D _WINDOWS /D NDEBUG /D _MBCS /Gm- /EHsc /MT /GS /Gy /fp:precise /Zc:wchar_t /Zc:forScope /Zc:inline /Yu"stdafx.h" /Fp"RELEASE\PCRPROJECT.PCH" /Fo"RELEASE\\" /Fd"RELEASE\VC141.PDB" /Gd /TP /analyze- C:\USERS\Z610067X\DOCUMENTS\ZDING\ANIT11\SOFTWARE\QPCR ALPHA\PCRPROJALPHA2\MANUDLG.CPP
^C:\USERS\Z610067X\DOCUMENTS\ZDING\ANIT11\SOFTWARE\QPCR ALPHA\PCRPROJALPHA2\TRIMREADER.CPP
/c /Zi /nologo /W3 /WX- /diagnostics:classic /O2 /Oi /Oy- /GL /D WIN32 /D _WINDOWS /D NDEBUG /D _MBCS /Gm- /EHsc /MT /GS /Gy /fp:precise /Zc:wchar_t /Zc:forScope /Zc:inline /Yu"stdafx.h" /Fp"RELEASE\PCRPROJECT.PCH" /Fo"RELEASE\\" /Fd"RELEASE\VC141.PDB" /Gd /TP /analyze- C:\USERS\Z610067X\DOCUMENTS\ZDING\ANIT11\SOFTWARE\QPCR ALPHA\PCRPROJALPHA2\TRIMREADER.CPP
^C:\USERS\Z610067X\DOCUMENTS\ZDING\ANIT11\SOFTWARE\QPCR ALPHA\PCRPROJALPHA2\VERSIONSHOW.CPP
/c /Zi /nologo /W3 /WX- /diagnostics:classic /O2 /Oi /Oy- /GL /D WIN32 /D _WINDOWS /D NDEBUG /D _MBCS /Gm- /EHsc /MT /GS /Gy /fp:precise /Zc:wchar_t /Zc:forScope /Zc:inline /Yu"stdafx.h" /Fp"RELEASE\PCRPROJECT.PCH" /Fo"RELEASE\\" /Fd"RELEASE\VC141.PDB" /Gd /TP /analyze- C:\USERS\Z610067X\DOCUMENTS\ZDING\ANIT11\SOFTWARE\QPCR ALPHA\PCRPROJALPHA2\VERSIONSHOW.CPP
^C:\USERS\Z610067X\DOCUMENTS\ZDING\ANIT11\SOFTWARE\QPCR ALPHA\PCRPROJALPHA2\GRADLG.CPP
/c /Zi /nologo /W3 /WX- /diagnostics:classic /O2 /Oi /Oy- /GL /D WIN32 /D _WINDOWS /D NDEBUG /D _MBCS /Gm- /EHsc /MT /GS /Gy /fp:precise /Zc:wchar_t /Zc:forScope /Zc:inline /Yu"stdafx.h" /Fp"RELEASE\PCRPROJECT.PCH" /Fo"RELEASE\\" /Fd"RELEASE\VC141.PDB" /Gd /TP /analyze- C:\USERS\Z610067X\DOCUMENTS\ZDING\ANIT11\SOFTWARE\QPCR ALPHA\PCRPROJALPHA2\GRADLG.CPP
^C:\USERS\Z610067X\DOCUMENTS\ZDING\ANIT11\SOFTWARE\QPCR ALPHA\PCRPROJALPHA2\OPERATIONDLG.CPP
/c /Zi /nologo /W3 /WX- /diagnostics:classic /O2 /Oi /Oy- /GL /D WIN32 /D _WINDOWS /D NDEBUG /D _MBCS /Gm- /EHsc /MT /GS /Gy /fp:precise /Zc:wchar_t /Zc:forScope /Zc:inline /Yu"stdafx.h" /Fp"RELEASE\PCRPROJECT.PCH" /Fo"RELEASE\\" /Fd"RELEASE\VC141.PDB" /Gd /TP /analyze- C:\USERS\Z610067X\DOCUMENTS\ZDING\ANIT11\SOFTWARE\QPCR ALPHA\PCRPROJALPHA2\OPERATIONDLG.CPP
^C:\USERS\Z610067X\DOCUMENTS\ZDING\ANIT11\SOFTWARE\QPCR ALPHA\PCRPROJALPHA2\PCRPROJECT.CPP
/c /Zi /nologo /W3 /WX- /diagnostics:classic /O2 /Oi /Oy- /GL /D WIN32 /D _WINDOWS /D NDEBUG /D _MBCS /Gm- /EHsc /MT /GS /Gy /fp:precise /Zc:wchar_t /Zc:forScope /Zc:inline /Yu"stdafx.h" /Fp"RELEASE\PCRPROJECT.PCH" /Fo"RELEASE\\" /Fd"RELEASE\VC141.PDB" /Gd /TP /analyze- C:\USERS\Z610067X\DOCUMENTS\ZDING\ANIT11\SOFTWARE\QPCR ALPHA\PCRPROJALPHA2\PCRPROJECT.CPP
^C:\USERS\Z610067X\DOCUMENTS\ZDING\ANIT11\SOFTWARE\QPCR ALPHA\PCRPROJALPHA2\PCRPROJECTDLG.CPP
/c /Zi /nologo /W3 /WX- /diagnostics:classic /O2 /Oi /Oy- /GL /D WIN32 /D _WINDOWS /D NDEBUG /D _MBCS /Gm- /EHsc /MT /GS /Gy /fp:precise /Zc:wchar_t /Zc:forScope /Zc:inline /Yu"stdafx.h" /Fp"RELEASE\PCRPROJECT.PCH" /Fo"RELEASE\\" /Fd"RELEASE\VC141.PDB" /Gd /TP /analyze- C:\USERS\Z610067X\DOCUMENTS\ZDING\ANIT11\SOFTWARE\QPCR ALPHA\PCRPROJALPHA2\PCRPROJECTDLG.CPP
^C:\USERS\Z610067X\DOCUMENTS\ZDING\ANIT11\SOFTWARE\QPCR ALPHA\PCRPROJALPHA2\PARSAVEDLG.CPP
/c /Zi /nologo /W3 /WX- /diagnostics:classic /O2 /Oi /Oy- /GL /D WIN32 /D _WINDOWS /D NDEBUG /D _MBCS /Gm- /EHsc /MT /GS /Gy /fp:precise /Zc:wchar_t /Zc:forScope /Zc:inline /Yu"stdafx.h" /Fp"RELEASE\PCRPROJECT.PCH" /Fo"RELEASE\\" /Fd"RELEASE\VC141.PDB" /Gd /TP /analyze- C:\USERS\Z610067X\DOCUMENTS\ZDING\ANIT11\SOFTWARE\QPCR ALPHA\PCRPROJALPHA2\PARSAVEDLG.CPP
^C:\USERS\Z610067X\DOCUMENTS\ZDING\ANIT11\SOFTWARE\QPCR ALPHA\PCRPROJALPHA2\REGDLG.CPP
/c /Zi /nologo /W3 /WX- /diagnostics:classic /O2 /Oi /Oy- /GL /D WIN32 /D _WINDOWS /D NDEBUG /D _MBCS /Gm- /EHsc /MT /GS /Gy /fp:precise /Zc:wchar_t /Zc:forScope /Zc:inline /Yu"stdafx.h" /Fp"RELEASE\PCRPROJECT.PCH" /Fo"RELEASE\\" /Fd"RELEASE\VC141.PDB" /Gd /TP /analyze- C:\USERS\Z610067X\DOCUMENTS\ZDING\ANIT11\SOFTWARE\QPCR ALPHA\PCRPROJALPHA2\REGDLG.CPP
^C:\USERS\Z610067X\DOCUMENTS\ZDING\ANIT11\SOFTWARE\QPCR ALPHA\PCRPROJALPHA2\TRIMDLG.CPP
/c /Zi /nologo /W3 /WX- /diagnostics:classic /O2 /Oi /Oy- /GL /D WIN32 /D _WINDOWS /D NDEBUG /D _MBCS /Gm- /EHsc /MT /GS /Gy /fp:precise /Zc:wchar_t /Zc:forScope /Zc:inline /Yu"stdafx.h" /Fp"RELEASE\PCRPROJECT.PCH" /Fo"RELEASE\\" /Fd"RELEASE\VC141.PDB" /Gd /TP /analyze- C:\USERS\Z610067X\DOCUMENTS\ZDING\ANIT11\SOFTWARE\QPCR ALPHA\PCRPROJALPHA2\TRIMDLG.CPP
