^C:\USERS\Z610067X\DOCUMENTS\ZDING\ANIT11\SOFTWARE\QPCR ALPHA\PCRPROJALPHA2\RELEASE\CHARTAXIS.OBJ|C:\USERS\Z610067X\DOCUMENTS\ZDING\ANIT11\SOFTWARE\QPCR ALPHA\PCRPROJALPHA2\RELEASE\CHARTAXISLABEL.OBJ|C:\USERS\Z610067X\DOCUMENTS\ZDING\ANIT11\SOFTWARE\QPCR ALPHA\PCRPROJALPHA2\RELEASE\CHARTBARSERIE.OBJ|C:\USERS\Z610067X\DOCUMENTS\ZDING\ANIT11\SOFTWARE\QPCR ALPHA\PCRPROJALPHA2\RELEASE\CHARTCANDLESTICKSERIE.OBJ|C:\USERS\Z610067X\DOCUMENTS\ZDING\ANIT11\SOFTWARE\QPCR ALPHA\PCRPROJALPHA2\RELEASE\CHARTCROSSHAIRCURSOR.OBJ|C:\USERS\Z610067X\DOCUMENTS\ZDING\ANIT11\SOFTWARE\QPCR ALPHA\PCRPROJALPHA2\RELEASE\CHARTCTRL.OBJ|C:\USERS\Z610067X\DOCUMENTS\ZDING\ANIT11\SOFTWARE\QPCR ALPHA\PCRPROJALPHA2\RELEASE\CHARTCURSOR.OBJ|C:\USERS\Z610067X\DOCUMENTS\ZDING\ANIT11\SOFTWARE\QPCR ALPHA\PCRPROJALPHA2\RELEASE\CHARTDATETIMEAXIS.OBJ|C:\USERS\Z610067X\DOCUMENTS\ZDING\ANIT11\SOFTWARE\QPCR ALPHA\PCRPROJALPHA2\RELEASE\CHARTDRAGLINECURSOR.OBJ|C:\USERS\Z610067X\DOCUMENTS\ZDING\ANIT11\SOFTWARE\QPCR ALPHA\PCRPROJALPHA2\RELEASE\CHARTFONT.OBJ|C:\USERS\Z610067X\DOCUMENTS\ZDING\ANIT11\SOFTWARE\QPCR ALPHA\PCRPROJALPHA2\RELEASE\CHARTGANTTSERIE.OBJ|C:\USERS\Z610067X\DOCUMENTS\ZDING\ANIT11\SOFTWARE\QPCR ALPHA\PCRPROJALPHA2\RELEASE\CHARTGRADIENT.OBJ|C:\USERS\Z610067X\DOCUMENTS\ZDING\ANIT11\SOFTWARE\QPCR ALPHA\PCRPROJALPHA2\RELEASE\CHARTGRID.OBJ|C:\USERS\Z610067X\DOCUMENTS\ZDING\ANIT11\SOFTWARE\QPCR ALPHA\PCRPROJALPHA2\RELEASE\CHARTLEGEND.OBJ|C:\USERS\Z610067X\DOCUMENTS\ZDING\ANIT11\SOFTWARE\QPCR ALPHA\PCRPROJALPHA2\RELEASE\CHARTLINESERIE.OBJ|C:\USERS\Z610067X\DOCUMENTS\ZDING\ANIT11\SOFTWARE\QPCR ALPHA\PCRPROJALPHA2\RELEASE\CHARTLOGARITHMICAXIS.OBJ|C:\USERS\Z610067X\DOCUMENTS\ZDING\ANIT11\SOFTWARE\QPCR ALPHA\PCRPROJALPHA2\RELEASE\CHARTPOINTSSERIE.OBJ|C:\USERS\Z610067X\DOCUMENTS\ZDING\ANIT11\SOFTWARE\QPCR ALPHA\PCRPROJALPHA2\RELEASE\CHARTSCROLLBAR.OBJ|C:\USERS\Z610067X\DOCUMENTS\ZDING\ANIT11\SOFTWARE\QPCR ALPHA\PCRPROJALPHA2\RELEASE\CHARTSERIE.OBJ|C:\USERS\Z610067X\DOCUMENTS\ZDING\ANIT11\SOFTWARE\QPCR ALPHA\PCRPROJALPHA2\RELEASE\CHARTSTANDARDAXIS.OBJ|C:\USERS\Z610067X\DOCUMENTS\ZDING\ANIT11\SOFTWARE\QPCR ALPHA\PCRPROJALPHA2\RELEASE\CHARTSURFACESERIE.OBJ|C:\USERS\Z610067X\DOCUMENTS\ZDING\ANIT11\SOFTWARE\QPCR ALPHA\PCRPROJALPHA2\RELEASE\CHARTTITLE.OBJ|C:\USERS\Z610067X\DOCUMENTS\ZDING\ANIT11\SOFTWARE\QPCR ALPHA\PCRPROJALPHA2\RELEASE\CHARTXYSERIE.OBJ|C:\USERS\Z610067X\DOCUMENTS\ZDING\ANIT11\SOFTWARE\QPCR ALPHA\PCRPROJALPHA2\RELEASE\CURVESHOW.OBJ|C:\USERS\Z610067X\DOCUMENTS\ZDING\ANIT11\SOFTWARE\QPCR ALPHA\PCRPROJALPHA2\RELEASE\GRADLG.OBJ|C:\USERS\Z610067X\DOCUMENTS\ZDING\ANIT11\SOFTWARE\QPCR ALPHA\PCRPROJALPHA2\RELEASE\INTTIMEDLG.OBJ|C:\USERS\Z610067X\DOCUMENTS\ZDING\ANIT11\SOFTWARE\QPCR ALPHA\PCRPROJALPHA2\RELEASE\MANUDLG.OBJ|C:\USERS\Z610067X\DOCUMENTS\ZDING\ANIT11\SOFTWARE\QPCR ALPHA\PCRPROJALPHA2\RELEASE\OPERATIONDLG.OBJ|C:\USERS\Z610067X\DOCUMENTS\ZDING\ANIT11\SOFTWARE\QPCR ALPHA\PCRPROJALPHA2\RELEASE\PARSAVEDLG.OBJ|C:\USERS\Z610067X\DOCUMENTS\ZDING\ANIT11\SOFTWARE\QPCR ALPHA\PCRPROJALPHA2\RELEASE\PCRPROJECT.OBJ|C:\USERS\Z610067X\DOCUMENTS\ZDING\ANIT11\SOFTWARE\QPCR ALPHA\PCRPROJALPHA2\RELEASE\PCRPROJECT.RES|C:\USERS\Z610067X\DOCUMENTS\ZDING\ANIT11\SOFTWARE\QPCR ALPHA\PCRPROJALPHA2\RELEASE\PCRPROJECTDLG.OBJ|C:\USERS\Z610067X\DOCUMENTS\ZDING\ANIT11\SOFTWARE\QPCR ALPHA\PCRPROJALPHA2\RELEASE\REGDLG.OBJ|C:\USERS\Z610067X\DOCUMENTS\ZDING\ANIT11\SOFTWARE\QPCR ALPHA\PCRPROJALPHA2\RELEASE\STDAFX.OBJ|C:\USERS\Z610067X\DOCUMENTS\ZDING\ANIT11\SOFTWARE\QPCR ALPHA\PCRPROJALPHA2\RELEASE\TRIMDLG.OBJ|C:\USERS\Z610067X\DOCUMENTS\ZDING\ANIT11\SOFTWARE\QPCR ALPHA\PCRPROJALPHA2\RELEASE\TRIMREADER.OBJ|C:\USERS\Z610067X\DOCUMENTS\ZDING\ANIT11\SOFTWARE\QPCR ALPHA\PCRPROJALPHA2\RELEASE\VERSIONSHOW.OBJ
C:\WINDOWS\GLOBALIZATION\SORTING\SORTDEFAULT.NLS
C:\USERS\Z610067X\DOCUMENTS\ZDING\ANIT11\SOFTWARE\QPCR ALPHA\PCRPROJALPHA2\HID.LIB
C:\PROGRAM FILES (X86)\WINDOWS KITS\10\LIB\10.0.15063.0\UM\X86\SETUPAPI.LIB
C:\USERS\Z610067X\DOCUMENTS\ZDING\ANIT11\SOFTWARE\QPCR ALPHA\PCRPROJALPHA2\RELEASE\PCRPROJECT.RES
C:\USERS\Z610067X\DOCUMENTS\ZDING\ANIT11\SOFTWARE\QPCR ALPHA\PCRPROJALPHA2\RELEASE\CHARTAXIS.OBJ
C:\USERS\Z610067X\DOCUMENTS\ZDING\ANIT11\SOFTWARE\QPCR ALPHA\PCRPROJALPHA2\RELEASE\CHARTAXISLABEL.OBJ
C:\USERS\Z610067X\DOCUMENTS\ZDING\ANIT11\SOFTWARE\QPCR ALPHA\PCRPROJALPHA2\RELEASE\CHARTBARSERIE.OBJ
C:\USERS\Z610067X\DOCUMENTS\ZDING\ANIT11\SOFTWARE\QPCR ALPHA\PCRPROJALPHA2\RELEASE\CHARTCANDLESTICKSERIE.OBJ
C:\USERS\Z610067X\DOCUMENTS\ZDING\ANIT11\SOFTWARE\QPCR ALPHA\PCRPROJALPHA2\RELEASE\CHARTCROSSHAIRCURSOR.OBJ
C:\USERS\Z610067X\DOCUMENTS\ZDING\ANIT11\SOFTWARE\QPCR ALPHA\PCRPROJALPHA2\RELEASE\CHARTCTRL.OBJ
C:\USERS\Z610067X\DOCUMENTS\ZDING\ANIT11\SOFTWARE\QPCR ALPHA\PCRPROJALPHA2\RELEASE\CHARTCURSOR.OBJ
C:\USERS\Z610067X\DOCUMENTS\ZDING\ANIT11\SOFTWARE\QPCR ALPHA\PCRPROJALPHA2\RELEASE\CHARTDATETIMEAXIS.OBJ
C:\USERS\Z610067X\DOCUMENTS\ZDING\ANIT11\SOFTWARE\QPCR ALPHA\PCRPROJALPHA2\RELEASE\CHARTDRAGLINECURSOR.OBJ
C:\USERS\Z610067X\DOCUMENTS\ZDING\ANIT11\SOFTWARE\QPCR ALPHA\PCRPROJALPHA2\RELEASE\CHARTFONT.OBJ
C:\USERS\Z610067X\DOCUMENTS\ZDING\ANIT11\SOFTWARE\QPCR ALPHA\PCRPROJALPHA2\RELEASE\CHARTGANTTSERIE.OBJ
C:\USERS\Z610067X\DOCUMENTS\ZDING\ANIT11\SOFTWARE\QPCR ALPHA\PCRPROJALPHA2\RELEASE\CHARTGRADIENT.OBJ
C:\USERS\Z610067X\DOCUMENTS\ZDING\ANIT11\SOFTWARE\QPCR ALPHA\PCRPROJALPHA2\RELEASE\CHARTGRID.OBJ
C:\USERS\Z610067X\DOCUMENTS\ZDING\ANIT11\SOFTWARE\QPCR ALPHA\PCRPROJALPHA2\RELEASE\CHARTLEGEND.OBJ
C:\USERS\Z610067X\DOCUMENTS\ZDING\ANIT11\SOFTWARE\QPCR ALPHA\PCRPROJALPHA2\RELEASE\CHARTLINESERIE.OBJ
C:\USERS\Z610067X\DOCUMENTS\ZDING\ANIT11\SOFTWARE\QPCR ALPHA\PCRPROJALPHA2\RELEASE\CHARTLOGARITHMICAXIS.OBJ
C:\USERS\Z610067X\DOCUMENTS\ZDING\ANIT11\SOFTWARE\QPCR ALPHA\PCRPROJALPHA2\RELEASE\CHARTPOINTSSERIE.OBJ
C:\USERS\Z610067X\DOCUMENTS\ZDING\ANIT11\SOFTWARE\QPCR ALPHA\PCRPROJALPHA2\RELEASE\CHARTSCROLLBAR.OBJ
C:\USERS\Z610067X\DOCUMENTS\ZDING\ANIT11\SOFTWARE\QPCR ALPHA\PCRPROJALPHA2\RELEASE\CHARTSERIE.OBJ
C:\USERS\Z610067X\DOCUMENTS\ZDING\ANIT11\SOFTWARE\QPCR ALPHA\PCRPROJALPHA2\RELEASE\CHARTSTANDARDAXIS.OBJ
C:\USERS\Z610067X\DOCUMENTS\ZDING\ANIT11\SOFTWARE\QPCR ALPHA\PCRPROJALPHA2\RELEASE\CHARTSURFACESERIE.OBJ
C:\USERS\Z610067X\DOCUMENTS\ZDING\ANIT11\SOFTWARE\QPCR ALPHA\PCRPROJALPHA2\RELEASE\CHARTTITLE.OBJ
C:\USERS\Z610067X\DOCUMENTS\ZDING\ANIT11\SOFTWARE\QPCR ALPHA\PCRPROJALPHA2\RELEASE\CHARTXYSERIE.OBJ
C:\USERS\Z610067X\DOCUMENTS\ZDING\ANIT11\SOFTWARE\QPCR ALPHA\PCRPROJALPHA2\RELEASE\CURVESHOW.OBJ
C:\USERS\Z610067X\DOCUMENTS\ZDING\ANIT11\SOFTWARE\QPCR ALPHA\PCRPROJALPHA2\RELEASE\GRADLG.OBJ
C:\USERS\Z610067X\DOCUMENTS\ZDING\ANIT11\SOFTWARE\QPCR ALPHA\PCRPROJALPHA2\RELEASE\INTTIMEDLG.OBJ
C:\USERS\Z610067X\DOCUMENTS\ZDING\ANIT11\SOFTWARE\QPCR ALPHA\PCRPROJALPHA2\RELEASE\MANUDLG.OBJ
C:\USERS\Z610067X\DOCUMENTS\ZDING\ANIT11\SOFTWARE\QPCR ALPHA\PCRPROJALPHA2\RELEASE\OPERATIONDLG.OBJ
C:\USERS\Z610067X\DOCUMENTS\ZDING\ANIT11\SOFTWARE\QPCR ALPHA\PCRPROJALPHA2\RELEASE\PARSAVEDLG.OBJ
C:\USERS\Z610067X\DOCUMENTS\ZDING\ANIT11\SOFTWARE\QPCR ALPHA\PCRPROJALPHA2\RELEASE\PCRPROJECT.OBJ
C:\USERS\Z610067X\DOCUMENTS\ZDING\ANIT11\SOFTWARE\QPCR ALPHA\PCRPROJALPHA2\RELEASE\PCRPROJECTDLG.OBJ
C:\USERS\Z610067X\DOCUMENTS\ZDING\ANIT11\SOFTWARE\QPCR ALPHA\PCRPROJALPHA2\RELEASE\REGDLG.OBJ
C:\USERS\Z610067X\DOCUMENTS\ZDING\ANIT11\SOFTWARE\QPCR ALPHA\PCRPROJALPHA2\RELEASE\STDAFX.OBJ
C:\USERS\Z610067X\DOCUMENTS\ZDING\ANIT11\SOFTWARE\QPCR ALPHA\PCRPROJALPHA2\RELEASE\TRIMDLG.OBJ
C:\USERS\Z610067X\DOCUMENTS\ZDING\ANIT11\SOFTWARE\QPCR ALPHA\PCRPROJALPHA2\RELEASE\TRIMREADER.OBJ
C:\USERS\Z610067X\DOCUMENTS\ZDING\ANIT11\SOFTWARE\QPCR ALPHA\PCRPROJALPHA2\RELEASE\VERSIONSHOW.OBJ
C:\PROGRAM FILES (X86)\MICROSOFT VISUAL STUDIO\2017\COMMUNITY\VC\TOOLS\MSVC\14.10.25017\BIN\HOSTX86\X86\C2.DLL
C:\PROGRAM FILES (X86)\MICROSOFT VISUAL STUDIO\2017\COMMUNITY\VC\TOOLS\MSVC\14.10.25017\ATLMFC\LIB\X86\NAFXCW.LIB
C:\PROGRAM FILES (X86)\MICROSOFT VISUAL STUDIO\2017\COMMUNITY\VC\TOOLS\MSVC\14.10.25017\LIB\X86\LIBCMT.LIB
C:\PROGRAM FILES (X86)\WINDOWS KITS\10\LIB\10.0.15063.0\UM\X86\KERNEL32.LIB
C:\PROGRAM FILES (X86)\WINDOWS KITS\10\LIB\10.0.15063.0\UM\X86\USER32.LIB
C:\PROGRAM FILES (X86)\WINDOWS KITS\10\LIB\10.0.15063.0\UM\X86\GDI32.LIB
C:\PROGRAM FILES (X86)\WINDOWS KITS\10\LIB\10.0.15063.0\UM\X86\MSIMG32.LIB
C:\PROGRAM FILES (X86)\WINDOWS KITS\10\LIB\10.0.15063.0\UM\X86\COMDLG32.LIB
C:\PROGRAM FILES (X86)\WINDOWS KITS\10\LIB\10.0.15063.0\UM\X86\WINSPOOL.LIB
C:\PROGRAM FILES (X86)\WINDOWS KITS\10\LIB\10.0.15063.0\UM\X86\ADVAPI32.LIB
C:\PROGRAM FILES (X86)\WINDOWS KITS\10\LIB\10.0.15063.0\UM\X86\SHELL32.LIB
C:\PROGRAM FILES (X86)\WINDOWS KITS\10\LIB\10.0.15063.0\UM\X86\COMCTL32.LIB
C:\PROGRAM FILES (X86)\WINDOWS KITS\10\LIB\10.0.15063.0\UM\X86\SHLWAPI.LIB
C:\PROGRAM FILES (X86)\WINDOWS KITS\10\LIB\10.0.15063.0\UM\X86\UXTHEME.LIB
C:\PROGRAM FILES (X86)\WINDOWS KITS\10\LIB\10.0.15063.0\UM\X86\WINDOWSCODECS.LIB
C:\PROGRAM FILES (X86)\WINDOWS KITS\10\LIB\10.0.15063.0\UM\X86\UUID.LIB
C:\PROGRAM FILES (X86)\MICROSOFT VISUAL STUDIO\2017\COMMUNITY\VC\TOOLS\MSVC\14.10.25017\ATLMFC\LIB\X86\ATLS.LIB
C:\PROGRAM FILES (X86)\WINDOWS KITS\10\LIB\10.0.15063.0\UM\X86\OLE32.LIB
C:\PROGRAM FILES (X86)\WINDOWS KITS\10\LIB\10.0.15063.0\UM\X86\OLEAUT32.LIB
C:\PROGRAM FILES (X86)\WINDOWS KITS\10\LIB\10.0.15063.0\UM\X86\OLEDLG.LIB
C:\PROGRAM FILES (X86)\WINDOWS KITS\10\LIB\10.0.15063.0\UM\X86\URLMON.LIB
C:\PROGRAM FILES (X86)\WINDOWS KITS\10\LIB\10.0.15063.0\UM\X86\GDIPLUS.LIB
C:\PROGRAM FILES (X86)\MICROSOFT VISUAL STUDIO\2017\COMMUNITY\VC\TOOLS\MSVC\14.10.25017\LIB\X86\COMSUPPW.LIB
C:\PROGRAM FILES (X86)\MICROSOFT VISUAL STUDIO\2017\COMMUNITY\VC\TOOLS\MSVC\14.10.25017\LIB\X86\LIBCPMT.LIB
C:\PROGRAM FILES (X86)\MICROSOFT VISUAL STUDIO\2017\COMMUNITY\VC\TOOLS\MSVC\14.10.25017\LIB\X86\OLDNAMES.LIB
C:\PROGRAM FILES (X86)\WINDOWS KITS\10\LIB\10.0.15063.0\UM\X86\WS2_32.LIB
C:\PROGRAM FILES (X86)\WINDOWS KITS\10\LIB\10.0.15063.0\UM\X86\MSWSOCK.LIB
C:\PROGRAM FILES (X86)\WINDOWS KITS\10\LIB\10.0.15063.0\UM\X86\OLEACC.LIB
C:\PROGRAM FILES (X86)\WINDOWS KITS\10\LIB\10.0.15063.0\UM\X86\PROPSYS.LIB
C:\PROGRAM FILES (X86)\WINDOWS KITS\10\LIB\10.0.15063.0\UM\X86\IMM32.LIB
C:\PROGRAM FILES (X86)\WINDOWS KITS\10\LIB\10.0.15063.0\UM\X86\WINMM.LIB
C:\PROGRAM FILES (X86)\WINDOWS KITS\10\LIB\10.0.15063.0\UM\X86\MSXML6.LIB
C:\PROGRAM FILES (X86)\MICROSOFT VISUAL STUDIO\2017\COMMUNITY\VC\TOOLS\MSVC\14.10.25017\LIB\X86\LIBVCRUNTIME.LIB
C:\PROGRAM FILES (X86)\WINDOWS KITS\10\LIB\10.0.15063.0\UCRT\X86\LIBUCRT.LIB
C:\PROGRAM FILES (X86)\MICROSOFT VISUAL STUDIO\2017\COMMUNITY\VC\TOOLS\MSVC\14.10.25017\BIN\HOSTX86\X86\1033\LINKUI.DLL
C:\PROGRAM FILES (X86)\MICROSOFT VISUAL STUDIO\2017\COMMUNITY\VC\TOOLS\MSVC\14.10.25017\BIN\HOSTX86\X86\CVTRES.EXE
C:\WINDOWS\SYSTEM32\TZRES.DLL
C:\WINDOWS\SYSTEM32\RSAENH.DLL
